<?xml version="1.0" encoding="UTF-8"?>
<testng-results ignored="0" total="2" passed="2" failed="0" skipped="0">
  <reporter-output>
  </reporter-output>
  <suite started-at="2020-08-02T16:53:26 MSK" name="Surefire suite" finished-at="2020-08-02T16:53:41 MSK" duration-ms="14748">
    <groups>
    </groups>
    <test started-at="2020-08-02T16:53:26 MSK" name="Surefire test" finished-at="2020-08-02T16:53:41 MSK" duration-ms="14748">
      <class name="ru.gdcloud.tests.LoginTest">
        <test-method is-config="true" signature="setup()[pri:0, instance:ru.gdcloud.tests.LoginTest@64711bf2]" started-at="2020-08-02T16:53:26 MSK" name="setup" finished-at="2020-08-02T16:53:34 MSK" duration-ms="7659" status="PASS">
          <reporter-output>
          </reporter-output>
        </test-method> <!-- setup -->
        <test-method signature="loginTest(java.lang.String, java.lang.String)[pri:0, instance:ru.gdcloud.tests.LoginTest@64711bf2]" started-at="2020-08-02T16:53:34 MSK" name="loginTest" description="GreenData login page" data-provider="test" finished-at="2020-08-02T16:53:39 MSK" duration-ms="4586" status="PASS">
          <params>
            <param index="0">
              <value>
                <![CDATA[tester]]>
              </value>
            </param>
            <param index="1">
              <value>
                <![CDATA[K35G3U]]>
              </value>
            </param>
          </params>
          <reporter-output>
          </reporter-output>
        </test-method> <!-- loginTest -->
        <test-method signature="loginTest(java.lang.String, java.lang.String)[pri:0, instance:ru.gdcloud.tests.LoginTest@64711bf2]" started-at="2020-08-02T16:53:39 MSK" name="loginTest" description="GreenData login page" data-provider="test" finished-at="2020-08-02T16:53:40 MSK" duration-ms="1502" status="PASS">
          <params>
            <param index="0">
              <value>
                <![CDATA[!@#231$!141455dqd]]>
              </value>
            </param>
            <param index="1">
              <value>
                <![CDATA[àáðà!4313"êàäàáðà;¹;]]>
              </value>
            </param>
          </params>
          <reporter-output>
          </reporter-output>
        </test-method> <!-- loginTest -->
        <test-method is-config="true" signature="tearDown()[pri:0, instance:ru.gdcloud.tests.LoginTest@64711bf2]" started-at="2020-08-02T16:53:40 MSK" name="tearDown" finished-at="2020-08-02T16:53:41 MSK" duration-ms="729" status="PASS">
          <reporter-output>
          </reporter-output>
        </test-method> <!-- tearDown -->
      </class> <!-- ru.gdcloud.tests.LoginTest -->
    </test> <!-- Surefire test -->
  </suite> <!-- Surefire suite -->
</testng-results>
